…
A named list of return values:

``` r
igp
#> $sp_dynamics
#> # A tibble: 30,000 x 8
#>    patch  time basal_k disturbance   fcl obs_P_pref species value
#>    <dbl> <dbl>   <dbl>       <dbl> <dbl>      <dbl> <chr>   <dbl>
#>  1     1     1     150           0     3      0.771 B          74
#>  2     1     1     150           0     3      0.771 C          22
#>  3     1     1     150           0     3      0.771 P          12
#>  4     2     1     150           0     3      0.812 B          39
#>  5     2     1     150           0     3      0.812 C           9
#>  6     2     1     150           0     3      0.812 P          10
#>  7     3     1     150           0     3      0.719 B          46
#>  8     3     1     150           0     3      0.719 C          18
#>  9     3     1     150           0     3      0.719 P          15
#> 10     4     1     150           0     3      0.651 B          41
#> # ... with 29,990 more rows
…
#>    patch_id disturb_value basal_k dens_dep_reg
#>       <int>         <dbl>   <dbl>        <dbl>
#>  1        1         0.905     150         0.01
#>  2        2         0.905     150         0.01
#>  3        3         0.899     150         0.01
#>  4        4         0.903     150         0.01
#>  5        5         0.895     150         0.01
#>  6        6         0.905     150         0.01
#>  7        7         0.894     150         0.01
#>  8        8         0.905     150         0.01
#>  9        9         0.899     150         0.01
#> 10       10         0.879     150         0.01
#> 
#> $fcl_state_prop
#> # A tibble: 5,000 x 3
#>     time fcl_state value
#>    <int> <chr>     <dbl>
#>  1     1 p0            0
#>  2     1 p1            0
#>  3     1 p2            0
#>  4     1 p2.5          0
#>  5     1 p3            1
#>  6     2 p0            0
#>  7     2 p1            0
#>  8     2 p2            0
#>  9     2 p2.5          0
#> 10     2 p3            1
#> # ... with 4,990 more rows
…
